<svg xmlns="http://www.w3.org/2000/svg" xmlns:xlink="http://www.w3.org/1999/xlink" id="Layer_1" x="0px" y="0px" viewBox="0 0 512 512" style="enable-background:new 0 0 512 512;" xml:space="preserve">
<style type="text/css">
	.st0{fill:#FFFFFF;}
</style>
<path class="st0" d="M383.15,254.07L238.01,12.21l-16.44,28.06l127.94,212.5c35.07,59.9,25.3,135.93-23.76,185.02  c-40.06,40.06-96.84,53.19-147.87,39.39c58.95,28.23,131.74,17.94,180.58-30.91C409.43,395.28,419.58,316.3,383.15,254.07z"></path>
<path class="st0" d="M381.13,250.3L239.18,7.97c-1.68-2.86-5.35-3.82-8.21-2.14c-0.89,0.52-1.62,1.26-2.14,2.14L86.87,250.3  c-47.59,81.26-20.3,185.72,60.96,233.31c66.93,39.2,151.89,28.29,206.74-26.55l0,0C409.41,402.2,420.32,317.24,381.13,250.3z   M346.09,448.57L346.09,448.57c-61.9,61.91-162.27,61.91-224.17,0.01c-51-51-61.15-129.99-24.69-192.22L234,22.87l136.78,233.49  C407.21,318.59,397.06,397.57,346.09,448.57z"></path>
<path class="st0" d="M229.21,105.08c2.93,1.55,6.56,0.44,8.11-2.48c0,0,0,0,0,0l1.25-2.35c1.55-2.93,0.44-6.56-2.48-8.12  c-2.93-1.55-6.56-0.44-8.12,2.48l0,0l-1.25,2.35C225.17,99.9,226.28,103.53,229.21,105.08  C229.21,105.08,229.21,105.08,229.21,105.08z"></path>
<path class="st0" d="M183.47,191.15c2.93,1.55,6.56,0.44,8.11-2.48c0,0,0,0,0,0l36.52-68.73c1.55-2.93,0.44-6.56-2.48-8.12  c-2.93-1.55-6.56-0.44-8.12,2.48l-36.52,68.73C179.43,185.97,180.54,189.6,183.47,191.15C183.47,191.15,183.47,191.15,183.47,191.15  z"></path>
</svg>