<svg xmlns="http://www.w3.org/2000/svg" xmlns:xlink="http://www.w3.org/1999/xlink" id="Camada_1" x="0px" y="0px" viewBox="0 0 841.89 595.28" style="enable-background:new 0 0 841.89 595.28;" xml:space="preserve">
<style type="text/css">
	.st0{fill:#D40058;}
</style>
<path class="st0" d="M276.34,298.33c0-59.83,0-119.66,0-179.5c0-10.22,1.77-12.03,11.76-12.03c71.34,0,142.69,0.04,214.03-0.09  c4.91-0.01,8.47,1.46,11.89,4.94c14.24,14.51,28.65,28.86,43.13,43.14c3.07,3.03,4.4,6.29,4.38,10.63c-0.14,25-0.01,50-0.14,75  c-0.02,3.56,0.76,5.11,4.65,5.89c31.95,6.37,58.15,34.21,63.32,66.48c3.25,20.26-0.47,39.04-10.71,56.72  c-17.7,30.56-35.43,61.1-52.89,91.81c-11.35,19.96-28.08,29.7-51.13,29.64c-75.34-0.19-150.69-0.07-226.03-0.07  c-10.49,0-12.28-1.74-12.28-12.05c0-60.17,0-120.33,0-180.5C276.32,298.33,276.33,298.33,276.34,298.33z M464.37,306.37  c-3.26,0-5.36,0-7.46,0c-38.17,0-76.35,0-114.52-0.01c-1.83,0-3.7,0.12-5.49-0.19c-4.17-0.73-6.56-3.36-6.43-7.61  c0.11-3.99,2.48-6.43,6.45-7.1c1.3-0.22,2.66-0.14,3.99-0.14c42.17-0.02,84.35-0.1,126.52,0.05c4.2,0.01,6.53-1.21,8.64-4.91  c12.81-22.46,32.08-36.05,57.51-40.82c4.18-0.78,8.42-1.23,12.45-1.8c0-24.93,0-49.33,0-74.03c-2.21,0-4.03,0-5.85,0  c-10.5,0.01-21,0.05-31.51,0.01c-7.78-0.03-10.21-2.45-10.26-10.07c-0.02-3,0-6,0-9c0-9.45,0-18.91,0-28.52  c-69.29,0-138.01,0-206.73,0c0,118,0,235.59,0,353.18c62.98,0,125.65,0,188.86,0c-1.02-1.32-1.61-2.11-2.22-2.88  c-14.81-18.47-16.91-40.54-5.2-61.11c17.14-30.11,34.57-60.06,52-90.01c7.09-12.18,20.3-15.89,31.66-9.21  c11.01,6.47,14.1,19.84,7.23,31.84c-9.86,17.2-19.8,34.35-29.72,51.52c-7.25,12.55-14.57,25.06-21.73,37.66  c-3.19,5.6-1.27,11.22,4.12,12.36c4.83,1.01,7.27-2.12,9.39-5.79c17.88-31.04,35.96-61.96,53.54-93.16  c3.01-5.34,5.11-11.77,5.6-17.86c1.39-17.23-9.86-32.88-25.98-37.75c-17.18-5.19-34.58,1.53-43.81,17.35  c-16.21,27.77-32.21,55.66-48.3,83.49c-6.42,11.11-12.68,22.31-19.31,33.28c-5.51,9.13-15.42,12.88-25.47,10.17  c-9.32-2.51-16.19-11.16-16.17-21.04c0.01-3.75,1.06-7.5,1.7-11.68c-1.42-0.06-3.05-0.2-4.67-0.2c-15.67,0-31.34,0.03-47.01,0.02  c-6.17,0-12.34,0.11-18.5-0.16c-4.4-0.2-7.26-3.39-7.27-7.39c-0.01-4.03,2.86-7.03,7.23-7.45c1.49-0.14,3-0.07,4.5-0.07  c19.5,0,39.06-0.92,58.49,0.32c12.8,0.82,21-2.4,25.65-14.79c2.34-6.23,6.55-11.76,10.43-18.5c-3.14,0-5.11,0-7.07,0  c-29.17,0-58.34,0-87.51,0c-1.5,0-3.01,0.07-4.5-0.07c-4.38-0.42-7.23-3.41-7.21-7.46c0.02-4.05,2.84-7.03,7.24-7.45  c1.98-0.19,4-0.12,6-0.12c28.5,0.01,57.04-0.69,85.5,0.39c12.26,0.46,19.99-2.46,24.5-14.2  C456.09,319.08,460.35,313.38,464.37,306.37z M615.58,324.61c-0.34-2.58-0.72-7.24-1.59-11.81c-6.28-32.77-38.24-56.56-71.46-53.26  c-24.19,2.41-42.08,14.46-54.15,35.44c-12.7,22.1-25.47,44.16-38.21,66.24c-9.16,15.87-18.38,31.71-27.49,47.61  c-2.54,4.44-1.66,8.91,1.84,11.07c3.79,2.35,8.17,0.99,11-3.44c0.54-0.84,1.02-1.72,1.52-2.59c21.84-37.8,43.58-75.64,65.54-113.37  c14.67-25.2,46.26-33.74,71.23-19.56c25.29,14.36,34.18,45.76,19.9,71.48c-9.54,17.19-19.57,34.1-29.39,51.13  c-8.83,15.3-17.57,30.64-26.55,45.84c-5.2,8.8-14.67,12.99-23.77,11.03c-10.03-2.15-16.61-9.19-18.12-19.5  c-0.95-6.5,1.7-12.01,4.85-17.43c16.63-28.68,33.19-57.4,49.74-86.13c3.19-5.54,2.62-9.87-1.42-12.28  c-4.08-2.43-8.23-0.82-11.39,4.63c-17.27,29.85-34.52,59.72-51.73,89.6c-3.93,6.82-5.87,14.21-5.01,22.06  c1.89,17.29,13.33,30.12,29.6,33.54c16.35,3.44,31.87-3.59,40.64-18.71c18.56-31.99,37.04-64.03,55.49-96.09  C612.58,349.8,615.34,338.58,615.58,324.61z M533.39,154.51c-6.53-6.48-13.33-13.23-19.64-19.5c0,5.79,0,12.54,0,19.5  C520.77,154.51,527.48,154.51,533.39,154.51z"></path>
<path class="st0" d="M406.7,243.31c21.65,0,43.3-0.01,64.95,0.01c1.83,0,3.71-0.09,5.46,0.32c3.48,0.8,5.41,3.21,5.56,6.78  c0.16,3.78-1.61,6.49-5.29,7.49c-1.89,0.51-3.96,0.44-5.95,0.44c-43.13,0.02-86.27,0.02-129.4,0.01c-8.04,0-11.71-2.43-11.63-7.65  c0.07-5.2,3.58-7.39,11.84-7.39C363.73,243.31,385.22,243.31,406.7,243.31z"></path>
<path class="st0" d="M435.82,210.29c-20.65,0-41.3-0.02-61.95,0.02c-3.69,0.01-7.05-0.5-8.88-4.2c-2.17-4.39,0.25-9.49,5.05-10.55  c1.6-0.35,3.31-0.3,4.97-0.3c39.97-0.03,79.93-0.05,119.9-0.06c2,0,4.03-0.09,5.98,0.25c4.19,0.73,6.56,3.46,6.39,7.64  c-0.15,3.91-2.52,6.45-6.53,7.03c-1.64,0.24-3.32,0.15-4.99,0.15C475.79,210.29,455.8,210.29,435.82,210.29z"></path>
<path class="st0" d="M337.9,195.38c3.95,0.03,7.35,3.32,7.46,7.23c0.12,4.11-3.38,7.67-7.53,7.65c-4.14-0.01-7.56-3.59-7.41-7.74  C330.56,198.54,333.9,195.35,337.9,195.38z"></path>
</svg>