<svg xmlns="http://www.w3.org/2000/svg" xmlns:xlink="http://www.w3.org/1999/xlink" id="Capa_1" x="0px" y="0px" viewBox="0 0 512 512" style="enable-background:new 0 0 512 512;" xml:space="preserve">
<style type="text/css">
	.st0{fill:#D49B15;}
	.st1{fill:#D40058;}
</style>
<path class="st0" d="M477.91,450.06H40.51c-18.5,0-33.5-15-33.5-33.5v0c0-18.5,15-33.5,33.5-33.5h437.4c18.5,0,33.5,15,33.5,33.5v0  C511.41,435.07,496.42,450.06,477.91,450.06z"></path>
<g>
	<path class="st1" d="M484.45,333.95h-31.01L445.1,81.12c-0.38-11.54-9.72-20.58-21.26-20.58c-11.54,0-20.89,9.04-21.26,20.58   l-8.34,252.83h-54.38c-4.15,0-7.52,3.36-7.52,7.52s3.36,7.52,7.52,7.52h144.6c6.91,0,12.52,5.62,12.52,12.52v62.39   c0,6.91-5.62,12.52-12.52,12.52H168.98c-4.15,0-7.51,3.36-7.51,7.52s3.36,7.52,7.51,7.52h315.47c15.19,0,27.55-12.36,27.55-27.55   v-62.39C512,346.32,499.64,333.96,484.45,333.95L484.45,333.95z M417.59,81.62c0.11-3.39,2.85-6.04,6.24-6.04   c3.39,0,6.13,2.65,6.24,6.04l8.32,252.34h-29.13L417.59,81.62z"></path>
	<path class="st1" d="M138.92,436.42H27.55c-6.91,0-12.52-5.62-12.52-12.52v-62.39c0-6.91,5.62-12.52,12.52-12.52h282.23   c4.15,0,7.52-3.36,7.52-7.52c0-4.15-3.36-7.52-7.52-7.52H117.78l-8.34-252.83c-0.38-11.54-9.72-20.58-21.26-20.58   c-11.54,0-20.89,9.04-21.26,20.58l-3.79,115.05c-0.14,4.15,3.11,7.62,7.26,7.76c4.13,0.11,7.62-3.12,7.76-7.26l3.79-115.05   c0.11-3.39,2.85-6.04,6.24-6.04c3.39,0,6.13,2.65,6.24,6.04l8.32,252.34H73.61l3.54-107.25c0.14-4.15-3.11-7.62-7.26-7.76   c-4.14-0.13-7.62,3.12-7.76,7.26l-3.55,107.75H27.55C12.36,333.95,0,346.32,0,361.51v62.39c0,15.19,12.36,27.55,27.55,27.55h111.36   c4.15,0,7.51-3.36,7.51-7.52S143.07,436.42,138.92,436.42L138.92,436.42z"></path>
	<path class="st1" d="M58.24,401.19c-4.15,0-7.51,3.36-7.51,7.52s3.36,7.52,7.51,7.52h24.01c4.15,0,7.51-3.36,7.51-7.52   s-3.36-7.52-7.51-7.52H58.24z"></path>
	<path class="st1" d="M138.92,401.19h-24.01c-4.15,0-7.51,3.36-7.51,7.52s3.36,7.52,7.51,7.52h24.01c4.15,0,7.51-3.36,7.51-7.52   C146.43,404.55,143.07,401.19,138.92,401.19z"></path>
	<path class="st1" d="M171.58,401.19c-4.15,0-7.51,3.36-7.51,7.52s3.36,7.52,7.51,7.52h24.01c4.15,0,7.51-3.36,7.51-7.52   s-3.36-7.52-7.51-7.52H171.58z"></path>
	<path class="st1" d="M228.25,401.19c-4.15,0-7.51,3.36-7.51,7.52s3.36,7.52,7.51,7.52h24.01c4.15,0,7.52-3.36,7.52-7.52   s-3.36-7.52-7.51-7.52H228.25z"></path>
	<path class="st1" d="M398.14,416.22c4.15,0,7.52-3.36,7.52-7.52s-3.36-7.52-7.52-7.52h-24.01c-4.15,0-7.52,3.36-7.52,7.52   s3.36,7.52,7.52,7.52H398.14z"></path>
	<path class="st1" d="M454.03,416.22c4.15,0,7.52-3.36,7.52-7.52s-3.36-7.52-7.52-7.52h-24.01c-4.15,0-7.52,3.36-7.52,7.52   s3.36,7.52,7.52,7.52H454.03z"></path>
	<path class="st1" d="M164.01,184.14c50.73-50.73,133.27-50.73,184,0c1.47,1.47,3.39,2.2,5.31,2.2s3.85-0.73,5.31-2.2   c2.93-2.93,2.93-7.69,0-10.63c-56.59-56.59-148.67-56.59-205.26,0c-2.93,2.93-2.93,7.69,0,10.63   C156.31,187.07,161.07,187.07,164.01,184.14L164.01,184.14z"></path>
	<path class="st1" d="M330.13,212.64c2.93-2.93,2.93-7.69,0-10.63c-40.83-40.83-107.24-40.87-148.12-0.12   c-2.33,2.22-3.05,5.77-1.53,8.8c1.32,2.63,3.97,4.16,6.73,4.16c1.13,0,2.28-0.26,3.35-0.79c0.75-0.38,1.42-0.87,1.99-1.44   c35.02-34.98,91.96-34.97,126.96,0.03C322.44,215.57,327.19,215.57,330.13,212.64z"></path>
	<path class="st1" d="M296.85,242.81c1.92,0,3.85-0.73,5.31-2.2c2.93-2.93,2.93-7.69,0-10.63c-12.33-12.33-28.72-19.12-46.16-19.12   c-17.43,0-33.83,6.79-46.16,19.12c-2.93,2.93-2.93,7.69,0,10.63c2.93,2.93,7.69,2.93,10.63,0c9.49-9.49,22.11-14.72,35.53-14.72   c13.42,0,26.04,5.23,35.53,14.72C293,242.07,294.92,242.81,296.85,242.81z"></path>
	<path class="st1" d="M234.35,254.43c-1.42,1.41-2.23,3.33-2.23,5.34c-0.09,6.66,8.35,10.03,12.87,5.27   c2.95-2.93,6.86-4.54,11.01-4.54c4.18,0,8.1,1.63,11.06,4.58c7.28,6.79,17.42-3.35,10.63-10.63   C265.74,242.5,246.31,242.49,234.35,254.43L234.35,254.43z"></path>
</g>
</svg>