<svg xmlns="http://www.w3.org/2000/svg" xmlns:xlink="http://www.w3.org/1999/xlink" id="Layer_1" x="0px" y="0px" viewBox="0 0 512 512" style="enable-background:new 0 0 512 512;" xml:space="preserve">
<style type="text/css">
	.st0{fill:#FFFFFF;}
</style>
<path class="st0" d="M420.75,456h-12.62c-12.81,0-23.19-10.38-23.19-23.19V311.19c0-12.81,10.38-23.19,23.19-23.19h12.62  c12.81,0,23.19,10.38,23.19,23.19v121.62C443.94,445.62,433.56,456,420.75,456z"></path>
<circle class="st0" cx="401.71" cy="368.75" r="7"></circle>
<circle class="st0" cx="401.71" cy="344.75" r="7"></circle>
<circle class="st0" cx="401.71" cy="394.75" r="7"></circle>
<circle class="st0" cx="425.71" cy="368.75" r="7"></circle>
<circle class="st0" cx="425.71" cy="344.75" r="7"></circle>
<circle class="st0" cx="425.71" cy="394.75" r="7"></circle>
<circle class="st0" cx="401.71" cy="314.75" r="7"></circle>
<path class="st0" d="M489.77,46.25H22.23C12.72,46.26,5.01,53.97,5,63.49V348.5c0.01,9.51,7.72,17.22,17.23,17.23h165.99v35.8  h-24.54c-3.31,0-6,2.69-6,6s2.69,6,6,6h184.64c3.31,0,6-2.69,6-6s-2.69-6-6-6h-24.55v-35.8h53.93v64.02c0,19.88,16.12,36,36,36  s36-16.12,36-36v-64.02h40.06c9.51-0.01,17.22-7.72,17.23-17.23V63.49C506.99,53.97,499.28,46.26,489.77,46.25z M311.78,401.53  H200.22v-35.8h111.55V401.53z M437.71,423.75h-7.08c-3.31,0-6,2.69-6,6s2.69,6,6,6h6.33c-3.31,12.84-16.4,20.56-29.23,17.25  c-8.46-2.18-15.07-8.79-17.25-17.25h20.04c3.31,0,6-2.69,6-6s-2.69-6-6-6h-20.8v-124c0-2.21,1.79-4,4-4h40c2.21,0,4,1.79,4,4  L437.71,423.75z M495,348.5c0,2.89-2.34,5.23-5.23,5.23h-40.06v-21.7h17.59c3.31,0,6-2.69,6-6V85.95c0-3.31-2.69-6-6-6H127.42  c-3.31,0-6,2.69-6,6s2.69,6,6,6H461.3v228.09h-11.59v-20.29c-0.01-8.83-7.17-15.99-16-16h-40c-8.83,0.01-15.99,7.17-16,16v20.29  H50.7V91.95h36.72c3.31,0,6-2.69,6-6s-2.69-6-6-6H44.7c-3.31,0-6,2.69-6,6v240.09c0,3.31,2.69,6,6,6h333.01v21.7H22.23  c-2.89,0-5.23-2.35-5.23-5.24V63.49c0-2.89,2.34-5.23,5.23-5.23h467.54c2.89,0,5.23,2.34,5.23,5.23V348.5z"></path>
</svg>