<svg xmlns="http://www.w3.org/2000/svg" xmlns:xlink="http://www.w3.org/1999/xlink" id="Camada_1" x="0px" y="0px" viewBox="0 0 1080 1920" style="enable-background:new 0 0 1080 1920;" xml:space="preserve">
<style type="text/css">
	.st0{fill:#D40058;}
	.st1{fill:#D49B15;}
</style>
<path class="st0" d="M713.25,983.01c2.42-2.79,4.49-5.63,7-8c9.77-9.26,24.52-9.15,33.81,0.07c9.34,9.28,9.51,23.91,0.31,33.8  c-3.29,3.54-6.67,7.02-10.26,10.24c-2.29,2.06-2.3,3.76-0.98,6.43c13.61,27.48,19.52,56.51,17.38,87.16  c-2.13,30.49-12.06,58.22-29.22,83.42c-3.38,4.96-7.79,6-11.9,3.09c-4.06-2.87-4.61-7.26-1.24-12.27  c17-25.27,26.19-53.02,26.68-83.54c0.36-22.68-4.12-44.37-13.42-65.06c-0.53-1.18-1.27-2.27-2.89-5.11  c-3.58,4.17-6.96,7.59-9.63,11.5c-0.87,1.28-0.34,4,0.32,5.77c16.21,43.13,12.58,84.49-11.84,123.54  c-28.66,45.82-83.95,70.95-136.53,61.05c-57.7-10.87-94.83-45.4-110.43-102.06c-7.48-27.15-5.05-54.21,4.92-80.49  c1.12-2.96,3.64-6.21,6.37-7.48c1.96-0.91,5.8,0.63,7.99,2.2c3.11,2.23,2.54,5.85,1.23,9.15c-6.11,15.39-8.86,31.4-8.46,47.91  c1.4,57.82,45.28,107.13,102.44,115.22c78.11,11.05,144.72-52.17,137.23-130.58c-0.95-9.97-3.9-19.76-5.93-29.63  c-0.6-0.06-1.2-0.12-1.8-0.18c-1.4,1.31-2.84,2.59-4.2,3.95c-30.31,30.29-60.6,60.58-90.9,90.87  c-12.69,12.68-26.23,12.76-38.83,0.18c-14.4-14.36-28.93-28.59-43.08-43.19c-13.01-13.43-7.17-35.04,10.65-39.89  c8.83-2.4,16.86-0.42,23.49,6.14c7.93,7.86,15.82,15.77,23.75,23.64c1.4,1.39,2.86,2.74,4.03,3.85  c29.54-29.55,58.84-58.86,88.45-88.47c-10.18-10.68-22.43-19.12-36.3-25.19c-30.49-13.36-61.35-13.86-92.49-2.32  c-5.6,2.08-9.11,1.26-11.41-2.55c-2.74-4.55-1.08-9.61,4.29-11.78c19.31-7.79,39.39-11.21,60.18-9.59  c33.16,2.59,61.74,15.53,85.79,38.5c0.58,0.55,1.3,0.95,1.98,1.44c3.67-3.57,7.2-7.01,11.01-10.71  c-9.02-9.66-19.15-17.44-30.23-23.95c-84.95-49.97-192.45-9.34-223.08,84.26c-27.58,84.29,25.39,176.58,112.02,194.93  c42.55,9.01,82.11,1.53,118.42-22.51c3.88-2.57,7.67-4.34,11.81-0.8c4.49,3.85,3.8,9.6-1.69,13.39  c-13.38,9.25-27.78,16.56-43.3,21.43c-77.57,24.36-158.34-7.13-198.75-77.38c-46.74-81.24-15.32-188.31,67.92-231.43  c65.15-33.75,141.35-23.19,194.71,26.96C709.84,980.05,711.09,981.1,713.25,983.01z M590.14,1148.32c2.67-1.96,5.42-3.47,7.54-5.59  c47.41-47.29,94.75-94.66,142.1-142.01c6.09-6.09,6.94-9.98,3.12-14.06c-3.77-4.02-8.53-3.09-14.48,2.85  c-43.59,43.58-87.18,87.17-130.78,130.75c-6.07,6.07-9.58,6.13-15.62,0.14c-10.41-10.32-20.71-20.75-31.13-31.06  c-3.91-3.87-8.61-4.11-11.96-0.88c-3.39,3.26-3.35,8.06,0.5,11.93c14.67,14.78,29.4,29.5,44.23,44.12  C585.22,1146.03,587.52,1146.8,590.14,1148.32z"></path>
<path class="st0" d="M713.95,1214.24c-0.09,4.36-3.72,7.86-8.07,7.8c-4.4-0.07-7.79-3.61-7.73-8.08c0.06-4.55,3.43-7.79,8.01-7.71  C710.67,1206.34,714.04,1209.79,713.95,1214.24z"></path>
<path class="st1" d="M590.14,1148.32c-2.63-1.51-4.93-2.28-6.48-3.82c-14.82-14.63-29.55-29.35-44.23-44.12  c-3.84-3.87-3.89-8.67-0.5-11.93c3.36-3.23,8.05-2.99,11.96,0.88c10.42,10.31,20.72,20.74,31.13,31.06  c6.04,5.99,9.55,5.93,15.62-0.14c43.6-43.58,87.18-87.17,130.78-130.75c5.94-5.94,10.7-6.87,14.48-2.85  c3.83,4.08,2.97,7.97-3.12,14.06c-47.35,47.35-94.69,94.71-142.1,142.01C595.56,1144.85,592.82,1146.36,590.14,1148.32z"></path>
</svg>